# Wavefront OBJ exported by MilkShape 3D

mtllib phone.mtl

v -57.789063 19.083712 45.739456
v -57.789063 -11.753231 32.649986
v 70.710938 19.083712 45.739456
v 70.710938 -11.753231 32.649986
v 70.710938 69.292694 -72.545471
v 70.710938 38.455761 -85.634995
v -57.789063 69.292694 -72.545471
v -57.789063 38.455761 -85.634995
v -8.063826 30.949619 35.700283
v -8.063826 17.142048 29.839306
v 57.485703 30.949619 35.700283
v 57.485703 17.142048 29.839306
v 57.485703 57.308086 -26.396389
v 57.485703 43.500504 -32.257347
v -8.063826 57.308086 -26.396389
v -8.063826 43.500504 -32.257347
v -9.071877 58.167927 -37.670959
v -9.071877 51.780521 -40.382233
v 57.225895 58.167927 -37.670959
v 57.225895 51.780521 -40.382233
v 57.225895 68.828964 -62.786758
v 57.225895 62.441566 -65.498047
v -9.071877 68.828964 -62.786758
v -9.071877 62.441566 -65.498047
v -45.754677 43.023762 43.519238
v -45.754677 16.616488 32.310047
v -18.603752 43.023762 43.519238
v -18.603752 16.616488 32.310047
v -18.603752 81.831299 -47.905548
v -18.603752 55.424026 -59.114746
v -45.754677 81.831299 -47.905548
v -45.754677 55.424026 -59.114746
# 32 vertices

vt 0.000000 1.000000
vt 0.000000 0.000000
vt 1.000000 1.000000
vt 1.000000 0.000000
# 4 texture coordinates

vn 0.000000 -0.390730 0.920505
vn 1.000000 0.000000 0.000000
vn 0.000000 0.390732 -0.920505
vn -1.000000 0.000000 0.000000
vn 0.000000 0.920505 0.390731
vn 0.000000 -0.920505 -0.390731
# 6 normals

g phoneBase
usemtl ciscoBlue
s 1
f 1/1/1 2/2/1 3/3/1
f 2/2/1 4/4/1 3/3/1
s 2
f 3/1/2 4/2/2 5/3/2
f 4/2/2 6/4/2 5/3/2
s 1
f 5/1/3 6/2/3 7/3/3
f 6/2/3 8/4/3 7/3/3
s 2
f 7/1/4 8/2/4 1/3/4
f 8/2/4 2/4/4 1/3/4
s 3
f 7/1/5 1/2/5 5/3/5
f 1/2/5 3/4/5 5/3/5
f 2/1/6 8/2/6 4/3/6
f 8/2/6 6/4/6 4/3/6
# 12 triangles in group

g keypads
usemtl phoneButtons
s 1
f 9/1/1 10/2/1 11/3/1
f 10/2/1 12/4/1 11/3/1
s 2
f 11/1/2 12/2/2 13/3/2
f 12/2/2 14/4/2 13/3/2
s 1
f 13/1/3 14/2/3 15/3/3
f 14/2/3 16/4/3 15/3/3
s 2
f 15/1/4 16/2/4 9/3/4
f 16/2/4 10/4/4 9/3/4
s 3
f 15/1/5 9/2/5 13/3/5
f 9/2/5 11/4/5 13/3/5
f 10/1/6 16/2/6 12/3/6
f 16/2/6 14/4/6 12/3/6
# 12 triangles in group

g screen
usemtl phoneScreen
s 1
f 17/1/1 18/2/1 19/3/1
f 18/2/1 20/4/1 19/3/1
s 2
f 19/1/2 20/2/2 21/3/2
f 20/2/2 22/4/2 21/3/2
s 1
f 21/1/3 22/2/3 23/3/3
f 22/2/3 24/4/3 23/3/3
s 2
f 23/1/4 24/2/4 17/3/4
f 24/2/4 18/4/4 17/3/4
s 3
f 23/1/5 17/2/5 21/3/5
f 17/2/5 19/4/5 21/3/5
f 18/1/6 24/2/6 20/3/6
f 24/2/6 22/4/6 20/3/6
# 12 triangles in group

g handle
usemtl phoneHandle
s 1
f 25/1/1 26/2/1 27/3/1
f 26/2/1 28/4/1 27/3/1
s 2
f 27/1/2 28/2/2 29/3/2
f 28/2/2 30/4/2 29/3/2
s 1
f 29/1/3 30/2/3 31/3/3
f 30/2/3 32/4/3 31/3/3
s 2
f 31/1/4 32/2/4 25/3/4
f 32/2/4 26/4/4 25/3/4
s 3
f 31/1/5 25/2/5 29/3/5
f 25/2/5 27/4/5 29/3/5
f 26/1/6 32/2/6 28/3/6
f 32/2/6 30/4/6 28/3/6
# 12 triangles in group

# 48 triangles total

