# Wavefront OBJ exported by MilkShape 3D

mtllib star.mtl

v 0.670105 12.809353 1.297989
v 0.670105 -12.531876 1.297989
v 10.997897 -6.309119 1.297989
v 9.614234 -6.309119 5.918925
v 5.833989 -6.309119 9.301691
v 0.670105 -6.309119 10.539869
v -4.493797 -6.309119 9.301691
v -8.274021 -6.309119 5.918925
v -9.657686 -6.309119 1.297989
v -8.274021 -6.195979 -3.322947
v -4.493797 -6.195979 -6.705715
v 0.670105 -6.195979 -7.943893
v 5.833989 -6.195979 -6.705715
v 9.614234 -6.195979 -3.322947
v 11.365806 -6.196554 1.297989
v 16.161779 -8.202000 9.568866
v 5.925746 -6.196554 9.549674
v 0.670105 -8.202000 17.899124
v -4.401112 -6.196554 8.889539
v -14.821572 -8.202000 9.568866
v -9.472296 -6.196554 1.463017
v -14.821572 -8.202000 -7.091621
v -4.585528 -6.196554 -6.128513
v 0.670105 -8.202000 -15.421890
v 5.556893 -6.196554 -6.128513
v 16.161779 -8.202000 -7.091621
v 13.290024 0.138739 1.297989
v 9.337131 0.138739 5.753898
v 6.980071 0.138739 9.611974
v 0.670105 0.138739 10.209807
v -5.639857 0.138739 9.611974
v -8.365748 0.138739 5.918925
v -11.949843 0.138739 1.297989
v -8.919038 0.138739 -2.827860
v -5.639857 0.138739 -7.015987
v 0.670105 0.138739 -7.613848
v 6.980071 0.138739 -7.015987
v 9.705999 0.138739 -3.157913
v 11.365806 6.474052 1.463017
v 16.161779 8.880577 9.568866
v 6.294588 6.474052 9.549674
v 0.670105 8.880577 17.899117
v -4.585528 6.474052 9.054565
v -14.821572 8.880577 9.568866
v -9.656723 6.474052 1.463017
v -14.821572 8.880577 -7.091621
v -4.401112 6.474052 -6.128502
v 0.670105 8.736658 -13.884243
v 5.372463 6.474052 -6.128502
v 16.161779 8.880577 -7.091621
v 10.997897 6.699736 2.123151
v 9.614234 6.586586 5.918925
v 5.833989 6.586586 9.301697
v 0.670105 6.586586 10.539872
v -4.493797 6.586586 9.301697
v -8.274021 6.586586 5.918925
v -9.657686 6.699736 2.123151
v -8.274021 6.699736 -2.497776
v -4.493797 6.699736 -5.880545
v 0.670105 6.699736 -7.118721
v 5.833989 6.699736 -5.880545
v 9.614234 6.699736 -2.497776
v 0.670105 -8.202000 17.899124
v -14.821572 -8.202000 9.568866
v -14.821572 -8.202000 -7.091621
v 0.670105 -8.202000 -15.421890
v 0.670105 0.138739 10.209807
v -5.639857 0.138739 9.611974
v -8.365748 0.138739 5.918925
v -11.949843 0.138739 1.297989
v -8.919038 0.138739 -2.827860
v -5.639857 0.138739 -7.015987
v 0.670105 0.138739 -7.613848
v 0.670105 8.880577 17.899117
v -14.821572 8.880577 9.568866
v -14.821572 8.880577 -7.091621
v 0.670105 8.736658 -13.884243
v 16.161779 -8.202000 9.568866
v 5.925746 -6.196554 9.549674
v 0.670105 -8.202000 17.899124
v 0.670105 -8.202000 -15.421890
v 5.556893 -6.196554 -6.128513
v 16.161779 -8.202000 -7.091621
v 13.290024 0.138739 1.297989
v 9.337131 0.138739 5.753898
v 6.980071 0.138739 9.611974
v 0.670105 0.138739 10.209807
v 0.670105 0.138739 -7.613848
v 6.980071 0.138739 -7.015987
v 9.705999 0.138739 -3.157913
v 11.365806 6.474052 1.463017
v 16.161779 8.880577 9.568866
v 0.670105 8.880577 17.899117
v 0.670105 8.736658 -13.884243
v 16.161779 8.880577 -7.091621
v 0.670105 12.809353 1.297989
v 10.997897 6.699736 2.123151
v 9.614234 6.586586 5.918925
v 5.833989 6.586586 9.301697
v 0.670105 6.586586 10.539872
v -4.493797 6.586586 9.301697
v -8.274021 6.586586 5.918925
v -9.657686 6.699736 2.123151
v -8.274021 6.699736 -2.497776
v -4.493797 6.699736 -5.880545
v 0.670105 6.699736 -7.118721
v 5.833989 6.699736 -5.880545
v 9.614234 6.699736 -2.497776
v 0.670105 -12.531876 1.297989
v 10.997897 -6.309119 1.297989
v 9.614234 -6.309119 5.918925
v 5.833989 -6.309119 9.301691
v 0.670105 -6.309119 10.539869
v -4.493797 -6.309119 9.301691
v -8.274021 -6.309119 5.918925
v -9.657686 -6.309119 1.297989
v -8.274021 -6.195979 -3.322947
v -4.493797 -6.195979 -6.705715
v 0.670105 -6.195979 -7.943893
v 5.833989 -6.195979 -6.705715
v 9.614234 -6.195979 -3.322947
# 121 vertices

vt 0.083333 0.000000
vt 0.083333 0.166667
vt 0.166667 0.166667
vt 0.083333 1.000000
vt 0.166667 0.833333
vt 0.083333 0.833333
vt 0.250000 0.000000
vt 0.250000 0.166667
vt 0.333333 0.166667
vt 0.250000 1.000000
vt 0.333333 0.833333
vt 0.250000 0.833333
vt 0.416667 0.000000
vt 0.416667 0.166667
vt 0.500000 0.166667
vt 0.416667 1.000000
vt 0.500000 0.833333
vt 0.416667 0.833333
vt 0.583333 0.000000
vt 0.583333 0.166667
vt 0.666667 0.166667
vt 0.583333 1.000000
vt 0.666667 0.833333
vt 0.583333 0.833333
vt 0.750000 0.000000
vt 0.750000 0.166667
vt 0.833333 0.166667
vt 0.750000 1.000000
vt 0.833333 0.833333
vt 0.750000 0.833333
vt 0.916667 0.000000
vt 0.916667 0.166667
vt 1.000000 0.166667
vt 0.916667 1.000000
vt 1.000000 0.833333
vt 0.916667 0.833333
vt 0.000000 0.166667
vt 0.000000 0.333333
vt 0.083333 0.333333
vt 0.166667 0.333333
vt 0.250000 0.333333
vt 0.333333 0.333333
vt 0.416667 0.333333
vt 0.500000 0.333333
vt 0.583333 0.333333
vt 0.666667 0.333333
vt 0.750000 0.333333
vt 0.833333 0.333333
vt 0.916667 0.333333
vt 1.000000 0.333333
vt 0.000000 0.500000
vt 0.083333 0.500000
vt 0.166667 0.500000
vt 0.250000 0.500000
vt 0.333333 0.500000
vt 0.416667 0.500000
vt 0.500000 0.500000
vt 0.583333 0.500000
vt 0.666667 0.500000
vt 0.750000 0.500000
vt 0.833333 0.500000
vt 0.916667 0.500000
vt 1.000000 0.500000
vt 0.000000 0.666667
vt 0.083333 0.666667
vt 0.166667 0.666667
vt 0.250000 0.666667
vt 0.333333 0.666667
vt 0.416667 0.666667
vt 0.500000 0.666667
vt 0.583333 0.666667
vt 0.666667 0.666667
vt 0.750000 0.666667
vt 0.833333 0.666667
vt 0.916667 0.666667
vt 0.000000 0.833333
vt 1.000000 0.666667
vt 0.000000 1.000000
vt 0.166667 1.000000
vt 0.333333 1.000000
vt 0.500000 1.000000
vt 0.666667 1.000000
vt 0.833333 1.000000
vt 0.000000 0.000000
vt 0.166667 0.000000
vt 0.333333 0.000000
vt 0.500000 0.000000
vt 0.666667 0.000000
vt 0.833333 0.000000
# 89 texture coordinates

vn -0.000944 -0.999979 -0.006417
vn -0.015893 -0.998468 0.053010
vn 0.116756 -0.984572 0.130332
vn 0.003973 0.999991 0.001427
vn 0.043340 0.993691 0.103441
vn -0.046774 0.998186 0.037900
vn -0.048102 -0.998634 0.020386
vn -0.129941 -0.809505 0.572553
vn -0.352171 0.718072 0.600290
vn -0.048616 0.998709 -0.014688
vn -0.035221 -0.998578 -0.040010
vn -0.679358 -0.712657 0.174909
vn -0.223665 0.973999 0.036052
vn 0.003518 0.999276 -0.037878
vn 0.025476 -0.997987 -0.058074
vn 0.163048 -0.981747 0.097919
vn -0.190656 0.945103 -0.265389
vn 0.023209 0.998337 -0.052764
vn 0.048874 -0.998682 -0.015687
vn -0.152336 -0.979497 -0.131830
vn 0.076293 0.945446 -0.316719
vn 0.051364 0.998677 -0.002389
vn 0.023621 -0.999272 0.029963
vn 0.119586 -0.991923 -0.042276
vn 0.227697 0.973696 0.008319
vn 0.024467 0.998655 0.045714
vn 0.690842 -0.722998 -0.003178
vn 0.318030 -0.928581 0.191295
vn 0.163394 -0.712784 0.682086
vn -0.172410 -0.761051 0.625361
vn -0.378155 0.597035 0.707494
vn -0.888285 0.096883 0.448957
vn -0.933803 0.354793 0.046193
vn -0.970489 0.015353 -0.240655
vn -0.223480 0.723204 -0.653478
vn -0.565081 0.416304 -0.712302
vn -0.060978 0.877904 -0.474939
vn 0.645277 -0.756792 -0.104322
vn 0.952637 -0.201208 -0.228031
vn 0.802910 0.017405 0.595846
vn 0.361216 0.345416 0.866147
vn 0.069491 0.676174 0.733458
vn -0.541278 -0.172219 0.823018
vn -0.797449 0.010821 0.603289
vn -0.958223 0.285954 -0.006310
vn -0.796590 0.011771 -0.604405
vn -0.519069 -0.153876 -0.840767
vn 0.069005 0.681781 -0.728295
vn 0.344805 0.079273 -0.935321
vn 0.762501 -0.270902 -0.587540
vn 0.805146 0.567673 -0.171722
vn 0.209833 0.932791 0.293038
vn 0.320139 0.612263 0.722942
vn -0.112352 0.942416 0.315008
vn -0.486469 -0.405693 0.773796
vn -0.499370 0.800252 0.332004
vn -0.940593 0.336372 -0.046245
vn -0.540486 0.730316 -0.417749
vn -0.421355 0.410629 -0.808606
vn -0.101894 0.820835 -0.562003
vn 0.410219 0.251948 -0.876494
vn 0.503724 0.631540 -0.589423
vn -0.069491 0.676174 0.733458
vn -0.094316 0.011671 0.995474
vn -0.341933 0.312253 0.886330
vn -0.797291 0.012401 0.603468
vn -0.603215 0.661734 0.445241
vn -0.593334 0.657371 -0.464563
vn -0.326946 0.332684 -0.884549
vn -0.094150 0.061064 -0.993684
vn -0.069005 0.681781 -0.728295
vn -0.070961 -0.658793 0.748970
vn -0.605211 -0.642939 0.469414
vn -0.690407 -0.723375 0.008185
vn -0.619253 -0.639995 -0.454897
vn -0.076330 -0.587519 -0.805602
vn 0.708970 0.471023 0.524880
vn 0.804135 0.006049 0.594416
vn 0.551728 0.675308 0.489445
vn 0.852644 -0.146829 0.501438
vn 0.577861 -0.545305 0.607222
vn 0.877553 -0.254096 -0.406616
vn 0.687127 -0.075291 -0.722626
vn 0.605762 0.670721 -0.428002
vn 0.636272 -0.666371 0.388725
vn 0.070961 -0.658793 0.748970
vn 0.076330 -0.587519 -0.805602
vn 0.818206 0.234843 0.524774
vn -0.003973 0.999991 0.001426
vn 0.486536 0.849823 0.202688
vn 0.132734 0.822154 0.553575
vn -0.367886 0.834055 0.411110
vn -0.512176 0.845077 -0.153363
vn -0.139477 0.801357 -0.581698
vn 0.380508 0.821221 -0.425218
vn 0.000944 -0.999979 -0.006417
vn 0.510031 -0.846490 0.152720
vn 0.132734 -0.822154 0.553574
vn -0.367885 -0.834056 0.411110
vn -0.508316 -0.843643 -0.172863
vn -0.134350 -0.817309 -0.560317
vn 0.372499 -0.829437 -0.416268
# 102 normals

g all
usemtl yellow
s 1
f 2/1/1 4/2/2 5/3/3
f 1/4/4 53/5/5 52/6/6
f 2/7/1 6/8/7 7/9/8
f 1/10/4 55/11/9 54/12/10
f 2/13/1 8/14/11 9/15/12
f 1/16/4 57/17/13 56/18/14
f 2/19/1 10/20/15 11/21/16
f 1/22/4 59/23/17 58/24/18
f 2/25/1 12/26/19 13/27/20
f 1/28/4 61/29/21 60/30/22
f 2/31/1 14/32/23 3/33/24
f 1/34/4 51/35/25 62/36/26
f 3/37/24 15/38/27 16/39/28
f 3/37/24 16/39/28 4/2/2
f 4/2/2 16/39/28 5/3/3
f 16/39/28 17/40/29 5/3/3
f 5/3/3 17/40/29 18/41/30
f 5/3/3 18/41/30 6/8/7
f 6/8/7 18/41/30 7/9/8
f 18/41/30 19/42/31 7/9/8
f 7/9/8 19/42/31 20/43/32
f 7/9/8 20/43/32 8/14/11
f 8/14/11 20/43/32 9/15/12
f 20/43/32 21/44/33 9/15/12
f 9/15/12 21/44/33 22/45/34
f 9/15/12 22/45/34 10/20/15
f 10/20/15 22/45/34 11/21/16
f 22/45/34 23/46/35 11/21/16
f 11/21/16 23/46/35 24/47/36
f 11/21/16 24/47/36 12/26/19
f 12/26/19 24/47/36 13/27/20
f 24/47/36 25/48/37 13/27/20
f 13/27/20 25/48/37 26/49/38
f 13/27/20 26/49/38 14/32/23
f 14/32/23 26/49/38 3/33/24
f 26/49/38 15/50/27 3/33/24
f 15/38/27 27/51/39 16/39/28
f 16/39/28 28/52/40 29/53/41
f 16/39/28 29/53/41 17/40/29
f 29/53/41 30/54/42 18/41/30
f 18/41/30 31/55/43 19/42/31
f 19/42/31 31/55/43 20/43/32
f 20/43/32 32/56/44 33/57/45
f 20/43/32 33/57/45 21/44/33
f 21/44/33 33/57/45 22/45/34
f 33/57/45 34/58/46 22/45/34
f 22/45/34 35/59/47 23/46/35
f 23/46/35 35/59/47 24/47/36
f 24/47/36 36/60/48 37/61/49
f 25/48/37 37/61/49 26/49/38
f 26/49/38 38/62/50 27/63/39
f 26/49/38 27/63/39 15/50/27
f 27/51/39 39/64/51 40/65/52
f 27/51/39 40/65/52 28/52/40
f 40/65/52 41/66/53 29/53/41
f 29/53/41 41/66/53 42/67/54
f 42/67/54 43/68/55 31/55/43
f 31/55/43 43/68/55 44/69/56
f 31/55/43 44/69/56 32/56/44
f 44/69/56 45/70/57 33/57/45
f 33/57/45 45/70/57 46/71/58
f 34/58/46 46/71/58 35/59/47
f 46/71/58 47/72/59 35/59/47
f 35/59/47 47/72/59 48/73/60
f 48/73/60 49/74/61 37/61/49
f 37/61/49 49/74/61 50/75/62
f 37/61/49 50/75/62 38/62/50
f 38/62/50 50/75/62 27/63/39
f 39/64/51 51/76/25 40/65/52
f 51/76/25 52/6/6 40/65/52
f 40/65/52 52/6/6 53/5/5
f 40/65/52 53/5/5 41/66/53
f 41/66/53 53/5/5 42/67/54
f 53/5/5 54/12/10 42/67/54
f 42/67/54 54/12/10 55/11/9
f 42/67/54 55/11/9 43/68/55
f 43/68/55 55/11/9 44/69/56
f 55/11/9 56/18/14 44/69/56
f 44/69/56 56/18/14 57/17/13
f 44/69/56 57/17/13 45/70/57
f 45/70/57 57/17/13 46/71/58
f 57/17/13 58/24/18 46/71/58
f 46/71/58 58/24/18 59/23/17
f 46/71/58 59/23/17 47/72/59
f 47/72/59 59/23/17 48/73/60
f 59/23/17 60/30/22 48/73/60
f 48/73/60 60/30/22 61/29/21
f 48/73/60 61/29/21 49/74/61
f 49/74/61 61/29/21 50/75/62
f 61/29/21 62/36/26 50/75/62
f 50/75/62 62/36/26 51/35/25
f 50/75/62 51/35/25 39/77/51
# 92 triangles in group

g left
usemtl dark
f 63/41/63 67/54/64 68/55/65
f 68/55/65 69/56/66 64/43/67
f 65/45/68 71/58/46 72/59/69
f 72/59/69 73/60/70 66/47/71
f 67/54/64 74/67/72 68/55/65
f 69/56/66 75/69/73 70/57/74
f 70/57/74 76/71/75 71/58/46
f 72/59/69 77/73/76 73/60/70
# 8 triangles in group

g right
usemtl dark
f 84/51/77 85/52/78 78/39/79
f 79/40/80 86/53/81 80/41/80
f 81/47/82 89/61/83 82/48/82
f 89/61/83 90/62/84 83/49/84
f 85/52/78 92/65/85 86/53/81
f 86/53/81 93/67/86 87/54/86
f 88/60/87 94/73/87 89/61/83
f 95/75/88 91/77/88 84/63/77
# 8 triangles in group

g top
usemtl dark
f 96/78/89 98/6/90 97/76/90
f 96/79/89 100/12/91 99/5/91
f 96/80/89 102/18/92 101/11/92
f 96/81/89 104/24/93 103/17/93
f 96/82/89 106/30/94 105/23/94
f 96/83/89 108/36/95 107/29/95
# 6 triangles in group

g bottom
usemtl dark
f 109/84/96 110/37/97 111/2/97
f 109/85/96 112/3/98 113/8/98
f 109/86/96 114/9/99 115/14/99
f 109/87/96 116/15/100 117/20/100
f 109/88/96 118/21/101 119/26/101
f 109/89/96 120/27/102 121/32/102
# 6 triangles in group

# 120 triangles total

