# Wavefront OBJ exported by MilkShape 3D

mtllib switch.mtl

v -72.289063 13.507813 68.000000
v -72.289063 -5.992188 68.000000
v 63.710938 13.507813 68.000000
v 63.710938 -5.992188 68.000000
v 63.710938 13.507813 -68.000000
v 63.710938 -5.992188 -68.000000
v -72.289063 13.507813 -68.000000
v -72.289063 -5.992188 -68.000000
v -72.289063 13.507813 68.000000
v 63.710938 13.507813 68.000000
v 63.710938 13.507813 -68.000000
v -72.289063 13.507813 -68.000000
# 12 vertices

vt 0.000000 1.000000
vt 0.000000 0.000000
vt 1.000000 1.000000
vt 1.000000 0.000000
# 4 texture coordinates

vn 0.000000 0.000000 1.000000
vn 1.000000 0.000000 0.000000
vn 0.000000 0.000000 -1.000000
vn -1.000000 0.000000 0.000000
vn 0.000000 -1.000000 0.000000
vn 0.000000 1.000000 0.000000
# 6 normals

g sideBottom
usemtl routerBlue
s 1
f 1/1/1 2/2/1 3/3/1
f 2/2/1 4/4/1 3/3/1
s 2
f 3/1/2 4/2/2 5/3/2
f 4/2/2 6/4/2 5/3/2
s 1
f 5/1/3 6/2/3 7/3/3
f 6/2/3 8/4/3 7/3/3
s 2
f 7/1/4 8/2/4 1/3/4
f 8/2/4 2/4/4 1/3/4
s 3
f 2/1/5 8/2/5 4/3/5
f 8/2/5 6/4/5 4/3/5
# 10 triangles in group

g top
usemtl switchArrows
f 12/1/6 9/2/6 11/3/6
f 9/2/6 10/4/6 11/3/6
# 2 triangles in group

# 12 triangles total

